{
  "project_info": {
    "project_number": "894036640347",
    "firebase_url": "https://tgdriverdemo.firebaseio.com",
    "project_id": "tgdriverdemo",
    "storage_bucket": "tgdriverdemo.appspot.com"
  },
  "client": [
    {
      "client_info": {
        "mobilesdk_app_id": "1:894036640347:android:aca59adfd2e45520",
        "android_client_info": {
          "package_name": "com.xeme.tgdriverdemo"
        }
      },
      "oauth_client": [
        {
          "client_id": "894036640347-ineqrdvajs4jhkjup2dvamba74crkj2r.apps.googleusercontent.com",
          "client_type": 3
        }
      ],
      "api_key": [
        {
          "current_key": "AIzaSyBWztGuDAHA8DzCfN5KTkWNOmzVatNAvjo"
        }
      ],
      "services": {
        "analytics_service": {
          "status": 1
        },
        "appinvite_service": {
          "status": 1,
          "other_platform_oauth_client": []
        },
        "ads_service": {
          "status": 2
        }
      }
    }
  ],
  "configuration_version": "1"
}